<?xml version="1.0" standalone="no"?>
<!DOCTYPE svg PUBLIC "-//W3C//DTD SVG 1.1//EN" "http://www.w3.org/Graphics/SVG/1.1/DTD/svg11.dtd">
<svg xmlns="http://www.w3.org/2000/svg">
<metadata>Copyright (C) 2015 by original authors @ fontello.com</metadata>
<defs>
<font id="vc-icon" horiz-adv-x="1000" >
<font-face font-family="vc-icon" font-weight="400" font-stretch="normal" units-per-em="1000" ascent="850" descent="-150" />
<missing-glyph horiz-adv-x="1000" />
<glyph glyph-name="plus" unicode="&#xe800;" d="m786 439v-107q0-22-16-38t-38-15h-232v-233q0-22-16-37t-38-16h-107q-22 0-38 16t-15 37v233h-232q-23 0-38 15t-16 38v107q0 23 16 38t38 16h232v232q0 22 15 38t38 16h107q23 0 38-16t16-38v-232h232q22 0 38-16t16-38z" horiz-adv-x="785.7" />
<glyph glyph-name="off" unicode="&#xe801;" d="m857 350q0-87-34-166t-91-137-137-92-166-34-167 34-136 92-92 137-34 166q0 102 45 191t126 151q24 18 54 14t46-28q18-23 14-53t-28-47q-54-41-84-101t-30-127q0-58 22-111t62-91 91-61 111-23 110 23 92 61 61 91 22 111q0 68-30 127t-84 101q-24 18-28 47t14 53q17 24 47 28t53-14q81-61 126-151t45-191z m-357 429v-358q0-29-21-50t-50-21-51 21-21 50v358q0 29 21 50t51 21 50-21 21-50z" horiz-adv-x="857.1" />
<glyph glyph-name="user" unicode="&#xe802;" d="m736 128q204-72 204-122l0-106-940 0 0 106q0 50 204 122 94 34 128 69t34 95q0 22-22 49t-32 73q-2 12-9 18t-14 8-14 17-9 43q0 16 5 26t9 12l4 4q-8 50-12 88-4 54 41 112t157 58 158-58 40-112l-12-88q18-8 18-42-2-28-9-43t-14-17-14-8-9-18q-8-48-31-74t-23-48q0-60 35-95t127-69z" horiz-adv-x="940" />
<glyph glyph-name="mail" unicode="&#xe803;" d="m1000 454v-443q0-37-26-63t-63-27h-822q-36 0-63 27t-26 63v443q25-28 56-49 202-137 278-192 32-24 51-37t53-27 61-13h2q28 0 61 13t53 27 51 37q95 68 278 192 32 22 56 49z m0 164q0-44-27-84t-68-69q-210-146-262-181-5-4-23-17t-30-22-29-18-33-15-27-5h-2q-12 0-27 5t-33 15-29 18-30 22-23 17q-51 35-147 101t-114 80q-35 23-65 64t-31 77q0 43 23 72t66 29h822q36 0 62-26t27-63z" horiz-adv-x="1000" />
<glyph glyph-name="ok" unicode="&#xe804;" d="m932 534q0-22-15-38l-404-404-76-76q-16-15-38-15t-38 15l-76 76-202 202q-15 16-15 38t15 38l76 76q16 16 38 16t38-16l164-165 366 367q16 16 38 16t38-16l76-76q15-16 15-38z" horiz-adv-x="1000" />
<glyph glyph-name="phone" unicode="&#xe805;" d="m786 158q0-15-6-39t-12-38q-11-28-68-60-52-28-103-28-16 0-30 2t-32 7-26 8-31 11-28 10q-54 20-97 47-72 44-148 120t-120 148q-27 43-46 97-2 5-10 28t-12 31-8 26-7 32-2 29q0 52 29 104 31 56 59 68 14 6 38 12t39 6q8 0 12-2 10-3 30-43 6-10 16-30t20-35 17-30q2-2 10-14t12-20 4-16q0-11-16-28t-35-30-34-30-16-25q0-5 3-13t4-11 8-14 7-10q42-77 97-132t131-97q1 0 10-6t14-8 11-5 13-2q10 0 25 15t30 35 31 35 28 16q7 0 15-4t20-12 14-10q14-8 30-17t35-20 31-17q39-19 42-29 2-4 2-12z" horiz-adv-x="785.7" />
<glyph glyph-name="cog" unicode="&#xe806;" d="m571 350q0 59-41 101t-101 42-101-42-42-101 42-101 101-42 101 42 41 101z m286 61v-124q0-7-4-13t-11-7l-104-16q-10-30-21-51 19-27 59-77 6-6 6-13t-5-13q-15-21-55-61t-53-39q-7 0-14 5l-77 60q-25-13-51-21-9-76-16-104-4-16-20-16h-124q-8 0-14 5t-6 12l-16 103q-27 9-50 21l-79-60q-6-5-14-5-8 0-14 6-70 64-92 94-4 5-4 13 0 6 5 12 8 12 28 37t30 40q-15 28-23 55l-102 15q-7 1-11 7t-5 13v124q0 7 5 13t10 7l104 16q8 25 22 51-23 32-60 77-6 7-6 14 0 5 5 12 15 20 55 60t53 40q7 0 15-5l77-60q24 13 50 21 9 76 17 104 3 15 20 15h124q7 0 13-4t7-12l15-103q28-9 50-21l80 60q5 5 13 5 7 0 14-5 72-67 92-95 4-5 4-13 0-6-4-12-9-12-29-38t-30-39q14-28 23-55l102-15q7-1 12-7t4-13z" horiz-adv-x="857.1" />
<glyph glyph-name="twitter" unicode="&#xe807;" d="m904 622q-37-54-90-93 0-8 0-23 0-73-21-145t-64-139-103-117-144-82-181-30q-151 0-276 81 19-3 43-3 126 0 224 77-59 2-105 36t-64 89q19-2 34-2 24 0 48 6-63 13-104 62t-41 115v2q38-21 82-23-37 25-59 64t-22 86q0 49 25 91 68-83 164-133t208-55q-5 21-5 41 0 75 53 127t127 53q79 0 132-57 61 12 114 44-20-64-79-100 52 6 104 28z" horiz-adv-x="928.6" />
<glyph glyph-name="facebook" unicode="&#xe808;" d="m500 644l-142 0q-14 0-25-15t-11-37l0-102 178 0 0-148-178 0 0-442-170 0 0 442-152 0 0 148 152 0 0 86q0 94 59 159t147 65l142 0 0-156z" horiz-adv-x="500" />
<glyph glyph-name="flag" unicode="&#xe809;" d="m874 616q14 6 22-1t0-19q-96-138-164-213t-110-90-73-2-60 37-63 40-93-4-139-86l90-352-100 0-184 720 92 34q90 66 152 86t98 3 64-51 62-71 79-62 129-20 198 51z" horiz-adv-x="900" />
<glyph glyph-name="gplus" unicode="&#xe80a;" d="m48 572q0 58 25 102t56 65 69 34 56 15 26 2l230 0 0-4q0-22-78-36-28 0-38-6 40-20 54-56t14-96q0-102-68-158-38-38-38-54 0-18 50-64 104-90 104-178 0-140-116-194-68-34-150-34l-4 0-4 2q-2-2-4-2-24 0-54 5t-75 21-74 57-29 103q0 60 32 101t83 57 88 22 71 6l2 0q-16 22-24 47t-8 39l2 14-14 0q-64 0-110 30-74 44-74 160z m370-452q-4 52-43 84t-103 32l-16 0q-64-2-114-46-46-42-42-94t53-80 119-24q68 4 109 40t37 88z m-60 500q-30 108-122 108-12 0-20-2-40-12-58-62-16-50-2-106 14-52 47-85t71-33q12 0 18 2 42 12 63 65t3 113z m388-174l150 0 0-94-150 0 0-150-94 0 0 150-150 0 0 94 150 0 0 150 94 0 0-150z" horiz-adv-x="896" />
<glyph glyph-name="menu" unicode="&#xe80b;" d="m857 100v-71q0-15-10-25t-26-11h-785q-15 0-25 11t-11 25v71q0 15 11 25t25 11h785q15 0 26-11t10-25z m0 286v-72q0-14-10-25t-26-10h-785q-15 0-25 10t-11 25v72q0 14 11 25t25 10h785q15 0 26-10t10-25z m0 285v-71q0-15-10-25t-26-11h-785q-15 0-25 11t-11 25v71q0 15 11 26t25 10h785q15 0 26-10t10-26z" horiz-adv-x="857.1" />
<glyph glyph-name="youtube" unicode="&#xe80c;" d="m807 739v-313h-64v35q-37-39-74-39-45 0-45 56v261h64v-240q0-21 17-21t38 24v237h64z m-237-73v-162q0-42-25-64t-68-22q-41 0-66 24t-26 63v162q0 39 28 60t67 20q38 0 64-22t26-59z m-65-167v171q0 10-9 17t-19 6-18-6-8-17v-171q0-26 26-26 28 0 28 26z m-190 351h73l-55-165q-4-12-10-27t-10-28-8-28v-176h-72v168q-2 12-29 85l-57 171h73l46-169h5z m611-739q0-49-6-145-4-50-38-80t-85-31q-99-5-297-5-199 0-297 5-50 2-84 31t-39 80q-6 96-6 145t6 145q4 50 39 80t84 31q98 5 297 5t297-5q50-2 85-31t38-80q6-96 6-145z m-71-91v19h-53q0-2 1-13t0-15-3-12-7-10-14-3q-10 0-15 6t-6 12-1 17v48h98v64q0 35-19 55t-54 20q-34 0-56-20t-23-55v-113q0-36 20-58t55-21q77 0 77 79z m-191-19v140q0 63-50 63-25 0-46-23v110h-52v-343h52v20q22-23 49-23 47 0 47 56z m-250-53h51v253h-51v-192q-17-19-31-19-13 0-13 17v194h-52v-213q0-44 36-44 30 0 60 32v-28z m-156 293h61v50h-179v-50h60v-293h58v293z m544-105v-28h-45v28q0 27 23 27 22 0 22-27z m-191 3v-133q0-21-18-21-14 0-25 11v158q10 10 22 10 21 0 21-25z" horiz-adv-x="1000" />
<glyph glyph-name="location" unicode="&#xe80d;" d="m429 493q0 59-42 101t-101 42-101-42-42-101 42-101 101-42 101 42 42 101z m142 0q0-61-18-100l-203-432q-9-18-27-29t-37-11-38 11-26 29l-204 432q-18 39-18 100 0 118 84 202t202 84 202-84 83-202z" horiz-adv-x="571.4" />
<glyph glyph-name="mail-white" unicode="&#xe80e;" d="m929 11v428q-18-20-39-37-149-114-238-188-28-24-46-38t-48-27-57-13h-2q-26 0-57 13t-48 27-46 38q-88 74-238 188-21 17-39 37v-428q0-8 6-13t12-5h822q7 0 12 5t6 13z m0 586v14t-1 7-1 7-3 5-5 4-8 2h-822q-7 0-12-6t-6-12q0-94 82-159 108-85 224-177 4-2 20-16t25-21 25-18 28-15 24-5h2q11 0 24 5t28 15 25 18 25 21 20 16q116 92 224 177 30 24 56 65t26 73z m71 21v-607q0-37-26-63t-63-27h-822q-36 0-63 27t-26 63v607q0 37 26 63t63 26h822q37 0 63-26t26-63z" horiz-adv-x="1000" />
<glyph glyph-name="clock" unicode="&#xe80f;" d="m460 810q190 0 325-135t135-325-135-325-325-135-325 135-135 325 135 325 325 135z m0-820q150 0 255 106t105 254q0 150-105 255t-255 105q-148 0-254-105t-106-255q0-148 106-254t254-106z m36 620l0-244 150-150-50-50-170 170 0 274 70 0z" horiz-adv-x="920" />
<glyph glyph-name="calendar" unicode="&#xe810;" d="m0-102l0 775 92 0q0 29 1 39t4 32 11 30 25 16 40 8 41-8 24-16 11-30 4-32l0-39 55 0 0 39t4 32 12 30 24 16 40 8q18 0 31-4t22-8 14-17 9-19 4-24 1-25l0-28 54 0 0 28t2 25 4 24 8 19 15 17 21 8 31 4q24 0 41-8t24-16 11-30 4-32l0-39 92 0 0-775-776 0z m65 177l0-112 139 0 0 112-139 0z m0 22l139 0 0 119-139 0 0-119z m0 141l139 0 0 130-139 0 0-130z m0 151l139 0 0 112-139 0 0-112z m71 203q0-33 37-33t37 33l0 130q0 33-37 33t-37-33l0-130z m89-517l0-112 152 0 0 112-152 0z m0 22l152 0 0 119-152 0 0-119z m0 141l152 0 0 130-152 0 0-130z m0 151l152 0 0 112-152 0 0-112z m126 203q0-33 37-33 38 0 38 33l0 130q0 33-38 33-37 0-37-33l0-130z m47-517l0-112 152 0 0 112-152 0z m0 22l152 0 0 119-152 0 0-119z m0 141l152 0 0 130-152 0 0-130z m0 151l152 0 0 112-152 0 0-112z m168 203q0-33 38-33 37 0 37 33l0 130q0 33-37 33-38 0-38-33l0-130z m5-517l0-112 140 0 0 112-140 0z m0 22l140 0 0 119-140 0 0-119z m0 141l140 0 0 130-140 0 0-130z m0 151l140 0 0 112-140 0 0-112z" horiz-adv-x="776" />
<glyph glyph-name="cancel" unicode="&#xe811;" d="m452 194q18-18 18-43t-18-43q-18-16-43-16t-43 16l-132 152-132-152q-18-16-43-16t-43 16q-16 18-16 43t16 43l138 156-138 158q-16 18-16 43t16 43q18 16 43 16t43-16l132-152 132 152q18 16 43 16t43-16q18-18 18-43t-18-43l-138-158z" horiz-adv-x="470" />
<glyph glyph-name="users" unicode="&#xe812;" d="m1000-90l-224 0 0 150q0 54-30 81t-154 89q40 30 40 84 0 16-13 33t-19 51q-2 8-14 16t-14 42q0 24 12 30-6 34-8 60-4 38 23 78t95 40 96-40 24-78l-8-60q12-6 12-30-2-34-14-42t-14-16q-6-34-19-51t-13-33q0-42 21-66t77-48q112-46 130-80 6-8 9-61t5-101l0-48z m-488 262q182-78 182-124l0-138-694 0 0 184q0 44 84 78 76 32 104 64t28 88q0 20-19 44t-25 68q-2 10-18 22t-20 56q0 14 3 23t7 13l4 2q-6 46-10 82-4 50 33 103t127 53 127-53 33-103l-10-82q14-8 14-38-4-44-20-56t-18-22q-6-44-25-68t-19-44q0-56 28-88t104-64z" horiz-adv-x="1000" />
<glyph glyph-name="user-add" unicode="&#xe813;" d="m620 128q180-64 180-122l0-106-800 0 0 202q36 14 82 26 94 34 129 69t35 95q0 22-23 48t-31 74q-2 12-23 25t-25 61q0 16 5 26t9 12l4 4q-8 50-12 88-6 54 40 112t160 58 160-58 42-112l-14-88q18-8 18-42-2-28-9-43t-14-17-14-8-9-18q-10-46-33-73t-23-49q0-60 36-95t130-69z m230 272l150 0 0-100-150 0 0-150-100 0 0 150-150 0 0 100 150 0 0 150 100 0 0-150z" horiz-adv-x="1000" />
<glyph glyph-name="angle-left" unicode="&#xe814;" d="m350 546q0-7-6-12l-219-220 219-219q6-6 6-13t-6-13l-28-28q-5-5-12-5t-13 5l-260 260q-6 6-6 13t6 13l260 260q5 6 13 6t12-6l28-28q6-5 6-13z" horiz-adv-x="357.1" />
<glyph glyph-name="heart-empty" unicode="&#xe815;" d="m790 642q70-64 70-156t-70-156l-360-330-360 330q-70 64-70 156t70 156q64 58 152 58t150-58l58-52 56 52q64 58 152 58t152-58z m-54-260q42 40 42 104 0 66-38 100-38 38-102 38-52 0-104-48l-104-92-106 92q-48 48-102 48-64 0-104-38-38-36-38-100 0-66 44-104l306-286z" horiz-adv-x="860" />
<glyph glyph-name="heart" unicode="&#xe816;" d="m790 644q70-64 70-156t-70-158l-360-330-360 330q-70 66-70 158t70 156q62 58 151 58t153-58l56-52 58 52q62 58 150 58t152-58z" horiz-adv-x="860" />
<glyph glyph-name="office" unicode="&#xe817;" d="m479 538l-63 0 0 228c0 12-8 22-19 22l-147 0 0 103c0 12-10 22-21 22-12 0-20-10-20-22l0-103-105 0c-12 0-20-10-20-22l0-228-62 0c-12 0-22-10-22-22l0-582c0-12 10-22 22-22l144 0 0 104c0 12 10 22 22 22l84 0c11 0 19-10 19-22l0-104 188 0c11 0 21 10 21 22l0 582c0 12-10 22-21 22z m-291 166l125 0c11 0 21-8 21-20 0-12-10-21-21-21l-125 0c-12 0-22 9-22 21 0 12 10 20 22 20z m0-82l125 0c11 0 21-10 21-22 0-12-10-21-21-21l-125 0c-12 0-22 9-22 21 0 12 10 22 22 22z m209-500l-293 0c-12 0-20 7-20 19 0 12 8 22 20 22l293 0c11 0 19-10 19-22 0-12-8-19-19-19z m0 125l-293 0c-12 0-20 7-20 19 0 12 8 22 20 22l293 0c11 0 19-10 19-22 0-12-8-19-19-19z m0 125l-293 0c-12 0-20 7-20 19 0 12 8 22 20 22l293 0c11 0 19-10 19-22 0-12-8-19-19-19z m582 332l-375 0c-12 0-20-8-20-20l0-750c0-12 8-22 20-22l146 0 0 104c0 12 10 22 22 22l82 0c11 0 21-10 21-22l0-104 104 0c11 0 21 10 21 22l0 750c0 12-10 20-21 20z m-82-625l-209 0c-12 0-22 9-22 21 0 12 10 22 22 22l209 0c11 0 19-10 19-22 0-12-8-21-19-21z m0 84l-209 0c-12 0-22 9-22 21 0 12 10 20 22 20l209 0c11 0 19-8 19-20 0-12-8-21-19-21z m0 84l-209 0c-12 0-22 7-22 19 0 12 10 22 22 22l209 0c11 0 19-10 19-22 0-12-8-19-19-19z m0 82l-209 0c-12 0-22 9-22 21 0 12 10 22 22 22l209 0c11 0 19-10 19-22 0-12-8-21-19-21z m0 84l-209 0c-12 0-22 9-22 21 0 12 10 20 22 20l209 0c11 0 19-8 19-20 0-12-8-21-19-21z m0 84l-209 0c-12 0-22 7-22 19 0 12 10 22 22 22l209 0c11 0 19-10 19-22 0-12-8-19-19-19z m0 82l-209 0c-12 0-22 9-22 21 0 12 10 22 22 22l209 0c11 0 19-10 19-22 0-12-8-21-19-21z" horiz-adv-x="1000" />
<glyph glyph-name="angle-right" unicode="&#xe818;" d="m332 314q0-7-6-13l-260-260q-5-5-12-5t-13 5l-28 28q-6 6-6 13t6 13l219 219-219 220q-6 5-6 12t6 13l28 28q5 6 13 6t12-6l260-260q6-5 6-13z" horiz-adv-x="357.1" />
<glyph glyph-name="map" unicode="&#xe819;" d="m984 600q16-10 16-30l0-584q0-20-16-30-8-6-16-6t-18 6l-216 136-216-136q-18-10-34 0l-218 136-216-136q-16-10-34 0-16 10-16 30l0 584q0 20 16 30l234 146q18 10 34 0l216-136 218 136q16 10 32 0z m-750-450l0 506-168-104 0-506z m234-104l0 506-168 104 0-506z m234 104l0 506-170-104 0-506z m232-104l0 506-168 104 0-506z" horiz-adv-x="1000" />
<glyph glyph-name="search-alt" unicode="&#xe81a;" d="m643 386q0 103-74 176t-176 74-177-74-73-176 73-177 177-73 176 73 74 177z m286-465q0-29-22-50t-50-21q-30 0-50 21l-191 191q-100-69-223-69-80 0-153 31t-125 84-84 125-31 153 31 152 84 126 125 84 153 31 152-31 126-84 84-126 31-152q0-123-69-223l191-191q21-21 21-51z" horiz-adv-x="928.6" />
<glyph glyph-name="linkedin" unicode="&#xe81b;" d="m204 698q0-40-29-68t-75-28q-44 0-72 28t-28 68q0 42 28 69t74 27 73-27 29-69z m-198-790l0 618 192 0 0-618-192 0z m306 420q0 86-4 198l166 0 10-86 4 0q60 100 190 100 100 0 161-67t61-199l0-366-192 0 0 342q0 134-98 134-70 0-98-72-6-12-6-48l0-356-194 0 0 420z" horiz-adv-x="900" />
<glyph glyph-name="camera" unicode="&#xe81c;" d="m536 475q66 0 113-47t47-114-47-113-113-47-114 47-47 113 47 114 114 47z m393 232q59 0 101-42t41-101v-500q0-59-41-101t-101-42h-786q-59 0-101 42t-42 101v500q0 59 42 101t101 42h125l28 76q11 27 39 47t58 20h286q29 0 57-20t39-47l29-76h125z m-393-643q103 0 176 74t74 176-74 177-176 73-177-73-73-177 73-176 177-74z" horiz-adv-x="1071.4" />
<glyph glyph-name="picture" unicode="&#xe81d;" d="m357 529q0-45-31-76t-76-32-76 32-31 76 31 75 76 32 76-32 31-75z m572-215v-250h-786v107l178 179 90-89 285 285z m53 393h-893q-7 0-12-5t-6-13v-678q0-8 6-13t12-5h893q7 0 13 5t5 13v678q0 7-5 13t-13 5z m89-18v-678q0-37-26-63t-63-27h-893q-36 0-63 27t-26 63v678q0 37 26 63t63 27h893q37 0 63-27t26-63z" horiz-adv-x="1071.4" />
<glyph glyph-name="video" unicode="&#xe81e;" d="m214-43v72q0 14-10 25t-25 10h-72q-14 0-25-10t-11-25v-72q0-14 11-25t25-11h72q14 0 25 11t10 25z m0 214v72q0 14-10 25t-25 11h-72q-14 0-25-11t-11-25v-72q0-14 11-25t25-10h72q14 0 25 10t10 25z m0 215v71q0 15-10 25t-25 11h-72q-14 0-25-11t-11-25v-71q0-15 11-25t25-11h72q14 0 25 11t10 25z m572-429v286q0 14-11 25t-25 11h-429q-14 0-25-11t-10-25v-286q0-14 10-25t25-11h429q15 0 25 11t11 25z m-572 643v71q0 15-10 26t-25 10h-72q-14 0-25-10t-11-26v-71q0-15 11-25t25-11h72q14 0 25 11t10 25z m786-643v72q0 14-11 25t-25 10h-71q-15 0-25-10t-11-25v-72q0-14 11-25t25-11h71q15 0 25 11t11 25z m-214 429v285q0 15-11 26t-25 10h-429q-14 0-25-10t-10-26v-285q0-15 10-25t25-11h429q15 0 25 11t11 25z m214-215v72q0 14-11 25t-25 11h-71q-15 0-25-11t-11-25v-72q0-14 11-25t25-10h71q15 0 25 10t11 25z m0 215v71q0 15-11 25t-25 11h-71q-15 0-25-11t-11-25v-71q0-15 11-25t25-11h71q15 0 25 11t11 25z m0 214v71q0 15-11 26t-25 10h-71q-15 0-25-10t-11-26v-71q0-15 11-25t25-11h71q15 0 25 11t11 25z m71 89v-750q0-37-26-63t-63-26h-893q-36 0-63 26t-26 63v750q0 37 26 63t63 27h893q37 0 63-27t26-63z" horiz-adv-x="1071.4" />
<glyph glyph-name="ccw" unicode="&#xe81f;" d="m857 350q0-87-34-166t-91-137-137-92-166-34q-96 0-183 41t-147 114q-4 6-4 13t5 11l76 77q6 5 14 5 9-1 13-7 41-53 100-82t126-29q58 0 110 23t92 61 61 91 22 111-22 111-61 91-92 61-110 23q-55 0-105-20t-90-57l77-77q17-16 8-38-10-23-33-23h-250q-15 0-25 11t-11 25v250q0 24 22 33 22 10 39-8l72-72q60 57 137 88t159 31q87 0 166-34t137-92 91-137 34-166z" horiz-adv-x="857.1" />
<glyph glyph-name="direction" unicode="&#xe820;" d="m848 768q8-8 11-16t-2-22-10-26-19-39-24-49q-54-112-147-286t-157-292l-66-118-54 380-380 56q442 246 696 368 20 10 48 25t39 20 25 9 23 1 17-11z m-92-96l-304-280 28-234z" horiz-adv-x="860" />
<glyph glyph-name="link" unicode="&#xe821;" d="m812 171q0 23-15 38l-116 116q-16 16-38 16-24 0-40-18 1-1 10-10t12-12 9-11 7-14 2-15q0-23-16-38t-38-16q-8 0-15 2t-14 7-11 9-12 12-10 10q-19-17-19-40 0-23 16-38l115-116q15-15 38-15 22 0 38 15l82 81q15 16 15 37z m-392 394q0 22-15 38l-115 115q-16 16-38 16-22 0-38-15l-82-82q-16-15-16-37 0-22 16-38l116-116q15-15 38-15 23 0 40 17-2 2-11 11t-12 12-8 10-7 14-2 16q0 22 15 38t38 15q9 0 16-2t14-7 10-8 12-12 11-11q18 17 18 41z m500-394q0-67-48-113l-82-81q-46-47-113-47-68 0-114 48l-115 115q-46 47-46 114 0 68 49 116l-49 49q-48-49-116-49-67 0-114 47l-116 116q-47 47-47 114t47 113l82 82q47 46 114 46 67 0 114-47l114-116q47-46 47-113 0-69-49-117l49-49q48 49 116 49 67 0 114-47l116-116q47-47 47-114z" horiz-adv-x="928.6" />
<glyph glyph-name="attention-circled" unicode="&#xe822;" d="m429 779q116 0 215-58t156-156 57-215-57-215-156-156-215-58-216 58-155 156-58 215 58 215 155 156 216 58z m71-696v106q0 8-5 13t-12 5h-107q-8 0-13-5t-6-13v-106q0-8 6-13t13-6h107q7 0 12 6t5 13z m-1 192l10 346q0 7-6 10-5 5-13 5h-123q-8 0-13-5-6-3-6-10l10-346q0-6 5-10t14-4h103q8 0 13 4t6 10z" horiz-adv-x="857.1" />
<glyph glyph-name="ok-circled" unicode="&#xe823;" d="m717 440q0 16-11 26l-50 50q-11 11-25 11t-26-11l-227-227-126 126q-11 11-25 11t-26-11l-50-50q-10-10-10-26 0-15 10-25l202-202q10-10 25-10 15 0 25 10l303 303q11 10 11 25z m140-90q0-117-57-215t-156-156-215-58-216 58-155 156-58 215 58 215 155 156 216 58 215-58 156-156 57-215z" horiz-adv-x="857.1" />
<glyph glyph-name="house" unicode="&#xe824;" d="m979-47l-63 0 0 411 53-32c2-1 6-3 10-3 7 0 13 3 17 9 8 10 4 24-6 30l-82 50c0 0 0 2-2 2l-31 20 0 182c0 11-10 19-21 19l-82 0c-12 0-22-8-22-19l0-104-301 186c-2 2-2 2-4 2l-58 37c-10 5-24 4-30-6-5-10-3-24 6-30l53-33 0-226-8-4-394-158c-12-4-16-16-12-28 2-8 10-11 20-11 1 0 3 0 7 0l55 23 0-317-62 0c-12 0-22-7-22-19 0-12 10-22 22-22l957 0c11 0 21 10 21 22 0 12-10 19-21 19z m-604 22c0-12-10-22-21-22l-166 0c-12 0-22 10-22 22l0 166c0 12 10 22 22 22l166 0c11 0 21-10 21-22z m-21 229l-166 0c-12 0-22 9-22 21 0 12 10 22 22 22l166 0c11 0 21-10 21-22 0-12-10-21-21-21z m293-251l-147 0 0 147c0 12 10 22 22 22l125 0z m-63 356c-47 0-84 37-84 82 0 47 37 84 84 84 45 0 82-37 82-84 0-45-37-82-82-82z m250-356l-146 0 0 169 125 0c11 0 21-10 21-22z" horiz-adv-x="1000" />
<glyph glyph-name="address" unicode="&#xe825;" d="m426 800q20 0 20-20l0-860q0-20-20-20l-46 0q-20 0-20 20l0 440-176 0q-16 0-28 6-12 2-26 12l-120 82q-10 6-10 16t10 16l120 82q14 10 26 12 8 4 28 4l176 0 0 190q0 20 20 20l46 0z m564-208q10-6 10-16t-10-16l-118-82q-22-12-26-12-14-6-28-6l-302 0-40 230 342 0q18 0 28-4t26-12z" horiz-adv-x="1000" />
<glyph glyph-name="mortar" unicode="&#xe826;" d="m959 538l-875 0c-35 0-62-28-62-63 0-35 27-62 62-62l22 0c5-155 97-301 224-370-66-27-121-68-121-109 0-12 8-22 20-22l584 0c0 0 0 0 0 0 11 0 21 10 21 22 0 2 0 4-2 6-4 39-57 76-121 103 129 69 219 215 227 370l21 0c33 0 63 27 63 62 0 35-30 63-63 63z m-523-383c-2-8-10-14-20-14-2 0-4 2-8 2-70 29-127 86-156 158-6 10 0 22 10 28 11 3 23-2 27-12 26-61 76-110 135-135 12-4 16-17 12-27z m168 424l168 0c5 0 11 3 15 9 170 237 188 262 143 299-8 6-18 14-33 14-38 0-79-37-309-287-4-6-6-14-2-22 2-8 10-13 18-13z" horiz-adv-x="1000" />
<glyph glyph-name="attach" unicode="&#xe827;" d="m783 77q0-65-44-109t-109-44q-75 0-131 55l-434 434q-63 64-63 151 0 88 62 150t150 62q88 0 152-63l338-338q5-5 5-12 0-9-17-26t-26-17q-7 0-13 5l-338 339q-44 43-101 43-59 0-100-42t-40-101q0-58 42-101l433-433q35-35 81-35 36 0 59 23t24 59q0 46-36 81l-324 324q-14 14-33 14-16 0-27-11t-11-27q0-18 14-33l229-228q6-6 6-13 0-9-18-26t-26-17q-7 0-12 5l-229 229q-35 34-35 83 0 46 32 78t77 32q49 0 83-36l325-324q55-54 55-131z" horiz-adv-x="785.7" />
<glyph glyph-name="up-micro" unicode="&#xe828;" d="m471 231h-471l235 236z" horiz-adv-x="471" />
<glyph glyph-name="bookmark-empty-1" unicode="&#xe829;" d="m0-56l0 906 609 0 0-1000-304 305-305-305 0 94z m63 62l242 243 242-243 0 782-484 0 0-782z" horiz-adv-x="609" />
<glyph glyph-name="bookmark" unicode="&#xe82a;" d="m0-56l0 906 609 0 0-1000-304 305-305-305 0 94z" horiz-adv-x="609" />
<glyph glyph-name="plane" unicode="&#xe82b;" d="m990 633c-17 39-54 65-97 65-14 0-28-2-39-8l-561-244-117 58c-6 4-12 4-18 0l-146-62c-6-2-10-8-12-14 0-8 2-13 6-19l187-188c6-6 16-8 24-4l267 108-107-289c-4-8-2-18 6-24 4-4 8-6 14-6 1 0 5 2 7 2l168 84c4 2 8 6 10 10l162 326 190 70c52 22 78 83 56 135z m-756-11l198-79c2-2 4-2 8-2 1 0 5 0 7 2l151 65c8 4 13 12 11 19 0 10-3 18-11 20l-194 76c-6 2-11 2-15 0l-155-62c-7-4-13-12-13-20 2-10 6-18 13-19z" horiz-adv-x="1000" />
<glyph glyph-name="balloon" unicode="&#xe82c;" d="m750 579c0 193-131 334-312 334-182 0-313-141-313-334 0-114 92-231 264-340l-53-86c-4-6-4-16 0-22 4-6 10-9 18-9l62 0 0-106c0-33 29-63 63-63 35 0 62 30 62 63 0 12 10 22 22 22 11 0 21-10 21-22l0-82c0-12 8-22 20-22 11 0 21 10 21 22l0 82c0 35-27 63-62 63-36 0-63-28-63-63 0-12-10-20-21-20-12 0-20 8-20 20l0 106 63 0c7 0 13 3 17 9 4 6 4 16 0 22l-53 86c172 109 264 226 264 340z m-312 209c-104 0-188-84-188-188 0-12-10-21-21-21-12 0-20 9-20 21 0 127 102 229 229 229 11 0 21-8 21-20 0-12-10-21-21-21z" horiz-adv-x="1000" />
<glyph glyph-name="share-alt" unicode="&#xe82d;" d="m750 60l0 56 100 82 0-188q0-20-15-35t-35-15l-750 0q-20 0-35 15t-15 35l0 550q0 22 14 36t36 14l288 0q-32-24-59-49t-39-39l-10-12-130 0 0-450 650 0z m-82 348q-166 0-242-41t-160-181q0 8 1 22t9 56 22 79 44 83 70 79 107 56 149 23l0 156 332-250-332-260 0 178z" horiz-adv-x="1000" />
<glyph glyph-name="star" unicode="&#xe82e;" d="m929 489q0-12-15-27l-203-197 48-279q1-4 1-12 0-11-6-19t-17-9q-10 0-22 7l-251 132-250-132q-13-7-23-7-11 0-17 9t-6 19q0 4 1 12l48 279-203 197q-14 15-14 27 0 21 31 26l280 40 126 254q11 23 27 23t28-23l125-254 280-40q32-5 32-26z" horiz-adv-x="928.6" />
<glyph glyph-name="star-empty" unicode="&#xe82f;" d="m634 290l171 165-235 35-106 213-105-213-236-35 171-165-41-235 211 111 211-111z m295 199q0-12-15-27l-203-197 48-279q1-4 1-12 0-28-23-28-10 0-22 7l-251 132-250-132q-13-7-23-7-11 0-17 9t-6 19q0 4 1 12l48 279-203 197q-14 15-14 27 0 21 31 26l280 40 126 254q11 23 27 23t28-23l125-254 280-40q32-5 32-26z" horiz-adv-x="928.6" />
<glyph glyph-name="star-half" unicode="&#xe830;" d="m662 316l143 139-198 29-37 6-17 34-89 179v-537l33-17 178-94-34 198-7 37z m252 146l-202-197 47-279q3-19-3-29t-19-11q-9 0-22 7l-251 132-250-132q-13-7-23-7-12 0-19 11t-3 29l48 279-203 197q-18 18-13 33t30 20l280 40 126 254q11 23 27 23 16 0 28-23l125-254 280-40q25-4 30-20t-13-33z" horiz-adv-x="928.6" />
<glyph glyph-name="share" unicode="&#xe831;" d="m650 200q62 0 106-43t44-107q0-62-44-106t-106-44-106 44-44 106q0 6 1 14t1 12l-260 156q-42-32-92-32-62 0-106 44t-44 106 44 106 106 44q54 0 92-30l260 156q0 4-1 12t-1 12q0 62 44 106t106 44 106-43 44-107q0-62-44-106t-106-44q-52 0-90 32l-262-156q2-8 2-26 0-16-2-24l262-156q36 30 90 30z" horiz-adv-x="800" />
<glyph glyph-name="globe" unicode="&#xe832;" d="m429 779q116 0 215-58t156-156 57-215-57-215-156-156-215-58-216 58-155 156-58 215 58 215 155 156 216 58z m152-291q-1-1-5-5t-7-6q1 0 2 3t3 6 2 4q3 4 12 8 8 4 29 7 19 5 29-6-1 1 5 7t8 7q2 1 8 2t9 5l1 12q-7-1-10 4t-3 12q0-2-4-5 0 4-2 5t-7-1-5-1q-5 2-8 5t-5 9-2 8q-1 3-5 6t-5 6q-1 1-2 3t-2 4-2 3-3 1-4-3-4-5-2-3q-2 1-4 1t-2-1-3-2-3-2q-1-1-4-1t-5-1q8 3-1 6-5 2-9 1 5 3 5 7t-5 8h3q-1 2-5 5t-10 4-7 4q-5 3-19 5t-18 0q-3-3-3-5t2-8 2-7q1-4-3-7t-3-7q0-4 7-9t6-12q-2-4-9-9t-9-6q-3-5-1-11t6-9q1-1 1-2t-2-3-3-2-4-2l-1-1q-7-3-12 3t-7 15q-4 14-9 17-13 4-17-1-2 7-22 15-14 5-33 2 4 0 0 8-4 9-10 7 1 3 2 10t0 7q2 7 7 13 1 1 4 5t5 7 1 4q19-3 28 6 2 2 6 9t6 10q5 3 8 3t8-3 8-3q8-1 8 6t-4 11q7 0 2 10-3 4-5 5-6 2-15-3-4-2 2-4-1 0-6-6t-9-10-9 3q0 0-3 7t-5 8q-5 0-9-9 1 5-6 9t-14 4q11 7-4 15-4 3-12 3t-11-2q-2-4-3-7t3-4 6-3 6-2 5-2q8-6 5-8-1 0-5-2t-6-2-4-3q-2-2 0-7t-1-8q-3 3-5 10t-4 9q4-5-14-4l-5 1q-3 0-9-1t-12-1-7 5q-3 4 0 11 0 2 2 1-2 2-6 5t-6 5q-25-8-52-23 3 0 6 1 3 1 8 3t5 4q19 7 24 3l3 3q7-9 11-14-4 3-17 1-11-4-12-7 4-7 2-10-2 2-6 6t-8 6-8 3q-9 0-13-1-81-45-131-124 4-4 7-4 2-1 3-5t1-6 6 1q5-4 2-10 1 0 25-15 10-10 11-12 2-6-5-10-1 1-5 5t-5 2q-2-3 0-10t6-7q-4 0-5-9t-2-20 0-13l1-1q-2-6 3-19t12-11q-7-1 11-24 3-4 4-5 2-1 7-4t9-6 5-5q2-3 6-13t8-13q-2-3 5-11t6-13q-1 0-2-1t-1 0q2-4 9-8t8-7q1-2 1-6t2-6 4-1q2 11-13 34-8 14-9 17-2 2-4 8t-2 8q1 0 3 0t5-2 4-3 1-1q-1-4 1-10t7-10 10-11 6-7q4-4 8-11t0-8q5 0 11-5t10-11q3-5 4-15t3-13q1-4 5-8t7-5l9-5t7-3q3-2 10-6t12-7q6-2 9-2t8 1 8 2q8 1 16-8t12-12q20-10 30-6-1 0 1-4t4-9 5-8 3-5q3-3 10-8t10-8q4 2 4 5-1-5 4-11t10-6q8 2 8 18-17-9-27 10 0 0-2 3t-2 5-1 4 0 5 2 1q5 0 6 2t-1 7-2 8q-1 4-6 11t-7 8q-3-5-9-4t-9 5q0-1-1-3t-1-4q-7 0-8 0 1 2 1 10t2 13q1 2 3 6t5 9 2 7-3 5-9 1q-11 0-15-11-1-2-2-6t-2-6-5-4q-4-2-14-1t-13 3q-8 4-13 16t-5 20q0 6 1 15t2 14-3 14q2 1 5 5t5 6q2 1 3 1t2 0 3 1 1 3q0 1-2 2-2 1-2 1 4-1 16 1t15-1q9-6 12 1 0 1-1 6t0 7q3-15 16-5 2-1 9-3t9-2q2-1 4-3t3-3 3 0 5 4q5-8 7-13 6-23 10-25 4-2 6-1t3 5 0 8-1 7l-1 4v11l0 4q-8 2-10 7t0 10 9 10q0 1 4 2t9 4 7 4q12 11 8 20 4 0 6 5 0 0-2 2t-5 2-2 2q5 2 1 8 3 2 4 7t4 5q5-7 12-1 4 5 1 9 2 4 11 6t10 5q4-1 5 1t0 7 2 7q2 2 8 5t8 2l9 7q2 2 0 2 10-1 18 6 5 6-4 11 2 3-2 5t-8 3q2 1 7 1t5 1q9 5-4 9-9 2-24-7z m-90-490q114 21 195 106-1 2-7 2t-7 2q-10 4-13 5 1 4-1 7t-5 5-7 5-6 4q-1 1-4 3t-4 3-4 2-5 2-5-1l-2-1q-2 0-3-1t-3-2-2-1 0-2q-12 10-20 13-3 0-7 3t-5 4-6 0-6-4q-3-2-4-8t-1-7q-4 3 0 10t1 10q-1 3-6 2t-6-2-7-5-5-3-4-3-5-5q-2-2-4-6t-2-7q-1 3-7 4t-5 3q1-5 2-19t3-22q4-17-7-26-15-14-16-23-2-12 7-14 0-4-5-12t-4-12q0-3 2-9z" horiz-adv-x="857.1" />
<glyph glyph-name="edit" unicode="&#xe833;" d="m0-150l0 818 188 182 521 0 0-226 31 31 162-160-380-381-239-78 76 238 262 262 0 226-369 0 0-156-164 0 0-668 533 0 0 143 88 87 0-318-709 0z m361 264l119 39-80 82z" horiz-adv-x="902" />
<glyph glyph-name="briefcase" unicode="&#xe834;" d="m456 326l0-100-456 0q8 226 10 292 4 108 100 108l160 0q16 26 37 67t23 45q14 26 23 32t37 6l222 0q26 0 36-7t22-31q18-32 60-112l160 0q96 0 100-108l10-292-454 0 0 100-90 0z m-74 354l-28-54 292 0-28 54q-14 26-42 26l-152 0q-28 0-42-26z m164-604l0 100 430 0q-6-88-10-166-6-84-90-84l-750 0q-90 0-90 84l-10 166 430 0 0-100 90 0z" horiz-adv-x="1000" />
<glyph glyph-name="down-open" unicode="&#xe835;" d="m0 533q0 25 18 43t44 18 42-18l305-303 304 303q18 18 43 18t43-18q18-18 18-43t-18-43l-390-391-391 391q-18 19-18 43z" horiz-adv-x="817.4" />
<glyph glyph-name="down-micro" unicode="&#xe836;" d="m235 231l-235 236h471z" horiz-adv-x="471" />
<glyph glyph-name="restaurant" unicode="&#xe837;" d="m791 291c0 264-45 541-113 606-8 10-20 16-33 16-22 0-41-20-41-41l0-919c0-21 19-41 41-41 23 0 43 20 43 41l0 313 82 0c2 0 2 0 2 0 11 0 19 10 19 22 0 2 0 2 0 3z m-312 622c-24 0-41-20-41-41l0-188c0-31-18-59-43-72l0 260c0 21-18 41-41 41-24 0-41-20-41-41l0-260c-26 13-43 41-43 72l0 188c0 21-18 41-41 41-24 0-41-20-41-41l0-188c0-78 52-143 125-162l0-569c0-21 17-41 41-41 23 0 41 20 41 41l0 569c72 19 125 84 125 162l0 188c0 21-18 41-41 41z" horiz-adv-x="1000" />
<glyph glyph-name="filter" unicode="&#xe838;" d="m783 685q9-23-8-39l-275-275v-414q0-23-22-33-7-3-14-3-15 0-25 11l-143 143q-10 10-10 25v271l-275 275q-18 16-8 39 9 22 33 22h714q23 0 33-22z" horiz-adv-x="785.7" />
<glyph glyph-name="fast-food" unicode="&#xe839;" d="m898 225l-791 0c-66 0-103-31-103-84 0-51 37-82 103-82l791 0c67 0 106 31 106 82 0 53-39 84-106 84z m-9-59l-125-84c-2-1-6-3-10-3-4 0-6 2-8 2l-250 84c-10 1-15 11-14 21 2 12 10 18 22 18l375 0c8 0 16-6 19-14 2-10-1-20-9-24z m9-128l-791 0c-11 0-21-10-21-22l0-20c0-52 39-84 105-84l625 0c65 0 104 32 104 84l0 20c0 12-10 22-22 22z m106 416c0 48-57 70-86 80-8 216-184 379-414 379-232 0-408-163-416-379-29-10-84-32-84-80 0-20 4-36 16-49-10-16-16-35-16-55 0-57 45-103 103-103l791 0c59 0 106 46 106 103 0 20-8 39-18 55 12 13 18 29 18 49z m-293 293c12 0 21-10 21-22 0-12-9-21-21-21-12 0-20 9-20 21 0 12 8 22 20 22z m-104 41c12 0 22-10 22-22 0-12-10-19-22-19-11 0-21 7-21 19 0 12 10 22 21 22z m-103-41c10 0 19-10 19-22 0-12-9-21-19-21-12 0-22 9-22 21 0 12 10 22 22 22z m-106 41c12 0 22-10 22-22 0-12-10-19-22-19-11 0-19 7-19 19 0 12 8 22 19 22z m-103-41c12 0 21-10 21-22 0-12-9-21-21-21-12 0-22 9-22 21 0 12 10 22 22 22z m603-334c-19 0-39 5-46 15-6 4-12 6-18 6-8-2-14-6-16-12-13-23-39-50-86-50-44 0-70 13-85 48-2 8-10 14-18 14-10 0-18-6-20-14-15-37-66-48-105-48-41 0-90 11-107 48-2 8-10 14-18 14-10 0-18-6-20-14-15-35-41-48-86-48-46 0-72 27-85 50-2 6-8 10-16 12-6 0-12-2-16-6-9-10-29-15-49-15-62 0-62 31-62 41 0 21 43 37 64 43l788 0c21-6 64-22 64-43 0-10 0-41-63-41z" horiz-adv-x="1000" />
<glyph glyph-name="bar" unicode="&#xe83a;" d="m854 829c-81 0-145-65-145-145 0-8 0-14 2-21l-389 0-146 166-176 0 0-41 156 0 110-125-78 0c-8 0-16-6-20-14-4-8-2-16 4-22l328-328 0-346-146 0c-12 0-20-7-20-19 0-12 8-22 20-22l334 0c11 0 21 10 21 22 0 12-10 19-21 19l-147 0 0 346 252 252c20-10 39-13 61-13 80 0 146 66 146 146 0 80-66 145-146 145z m0-250c-10 0-20 2-28 3l43 45c6 6 8 14 4 22-2 8-10 14-19 14l-102 0c-2 5-2 13-2 21 0 57 47 104 104 104 58 0 105-47 105-104 0-59-47-105-105-105z" horiz-adv-x="1000" />
<glyph glyph-name="catering" unicode="&#xe83b;" d="m188 204l-166 0c-12 0-22-8-22-20l0-250c0-12 10-22 22-22l166 0c11 0 21 10 21 22l0 250c0 12-10 20-21 20z m-84-208c-12 0-20 8-20 20 0 12 8 22 20 22 11 0 21-10 21-22 0-12-10-20-21-20z m459 83l-34 0c0 0 0 2 0 2-25 25-78 82-175 82l-104 0c-12 0-21-10-21-22l0-166c0-12 9-22 21-22l625 0c12 0 22 10 22 22 0 70-110 104-334 104z m416 293l-957 0c-12 0-22-10-22-22 0-12 10-21 22-21l33 0 76-77c4-4 10-5 16-5l707 0c5 0 11 1 15 5l76 77 34 0c11 0 21 9 21 21 0 12-10 22-21 22z m-854 19l750 0c0 0 0 0 0 0 12 0 22 10 22 22 0 2 0 2 0 3-2 180-147 334-329 366 10 13 16 29 16 47 0 46-37 84-84 84-47 0-84-38-84-84 0-18 6-34 16-47-184-32-328-188-328-369 0-12 9-22 21-22z m375 481c23 0 41-20 41-43 0-22-18-41-41-41-23 0-41 19-41 41 0 23 18 43 41 43z m-246-323c55 84 146 135 246 135 12 0 22-10 22-21 0-12-10-22-22-22-86 0-164-43-211-115-4-6-10-10-17-10-4 0-8 2-12 4-10 6-12 20-6 29z" horiz-adv-x="1000" />
<glyph glyph-name="hotel" unicode="&#xe83c;" d="m147 725l707 0c11 0 21 10 21 22l0 41c0 9-6 17-16 19l-353 106c-4 0-8 0-12 0l-353-106c-10-2-16-10-16-19l0-41c0-12 10-22 22-22z m832-772l-145 0 0 731c0 12-10 20-21 20l-625 0c-12 0-22-8-22-20l0-731-144 0c-12 0-22-7-22-19 0-12 10-22 22-22l957 0c11 0 21 10 21 22 0 12-10 19-21 19z m-625 106l-82 0 0 82 82 0z m0 166l-82 0 0 84 82 0z m0 166l-82 0 0 84 82 0z m0 168l-82 0 0 82 82 0z m84 82l125 0 0-82-125 0z m0-166l125 0 0-84-125 0z m0-166l125 0 0-84-125 0z m146-356l-168 0 0 188c0 12 10 22 22 22l125 0c11 0 21-10 21-22z m145 106l-82 0 0 82 82 0z m0 166l-82 0 0 84 82 0z m0 166l-82 0 0 84 82 0z m0 168l-82 0 0 82 82 0z" horiz-adv-x="1000" />
<glyph glyph-name="boutique" unicode="&#xe83d;" d="m994 536l-228 228c-4 4-10 6-16 6l-55 0-54 57c-2 0-2 0-2 0-2 2-4 4-4 4-2 0-2 0-2 0-4 1-6 1-8 1l-250 0c-2 0-4 0-8-1 0 0 0 0-2 0 0 0-2-2-4-4 0 0 0 0-2 0l-54-57-55 0c-6 0-12-2-16-6l-228-228c-8-10-8-22 0-30l125-125c8-9 21-9 29 0l69 69 0-471c0-12 9-22 21-22l229 0 0 666c0 12 9 22 21 22 12 0 22-10 22-22l0-666 228 0c12 0 22 10 22 22l0 471 68-69c8-9 21-9 29 0l125 125c8 8 8 20 0 30z m-556 119l-96 93 33 34 96-96z m62 62l-74 74 148 0z m63-572c-12 0-22 10-22 21 0 12 10 20 22 20 11 0 21-8 21-20 0-11-10-21-21-21z m0 84c-12 0-22 10-22 19 0 12 10 22 22 22 11 0 21-10 21-22 0-9-10-19-21-19z m0 82c-12 0-22 10-22 21 0 12 10 22 22 22 11 0 21-10 21-22 0-11-10-21-21-21z m0 84c-12 0-22 10-22 21 0 12 10 20 22 20 11 0 21-8 21-20 0-11-10-21-21-21z m0 84c-12 0-22 10-22 19 0 12 10 22 22 22 11 0 21-10 21-22 0-9-10-19-21-19z m0 176l-34 31 96 96 33-34z" horiz-adv-x="1000" />
<glyph glyph-name="banquet-hall" unicode="&#xe83e;" d="m979 913l-957 0c-12 0-22-10-22-22l0-957c0-12 10-22 22-22l332 0c11 0 21 10 21 22 0 66-8 131-23 188l296 0c-15-57-23-122-23-188 0-12 10-22 22-22l332 0c11 0 21 10 21 22l0 957c0 12-10 22-21 22z m-336-106c9 4 21-4 23-16 20-93 96-193 176-234 12-6 15-19 10-29-4-8-10-12-18-12-4 0-8 2-10 2-93 47-177 158-199 266-2 11 6 21 18 23z m-485-250c82 41 157 141 176 234 2 12 14 20 23 16 12-2 20-12 18-23-21-108-105-219-199-266-2 0-6-2-10-2-8 0-14 4-18 12-5 10-1 23 10 29z m-117-207l0 41 84 0 0-41z m168-250c-12 0-21 10-21 22 0 33-32 93-45 103-10 2-18 10-18 22 0 11 10 19 22 19 43 0 82-105 82-144 0-12-8-22-20-22z m453 63l-324 0c-37 103-98 173-172 185l0 45c176 8 289 113 334 301 45-188 158-293 334-301l0-45c-74-12-135-82-172-185z m195 62c-13-10-44-70-44-103 0-12-10-22-22-22-12 0-19 10-19 22 0 39 39 144 82 144 11 0 21-8 21-19 0-12-8-20-18-22z m102 125l-84 0 0 41 84 0z" horiz-adv-x="1000" />
<glyph glyph-name="user-female" unicode="&#xe83f;" d="m0-119q0 9 1 23t11 45 27 49q16 17 65 37t111 43 91 37q32 17 52 47t24 65h-81q-2 9-5 24t-10 59-12 87-7 96 1 97 15 81 33 57q18 19 42 26t33-1q1 0 2 1 0 1 2 8 13 33 42 47 17 10 62 8 2 0 7 0t6 0h2q25-2 56-11 27-8 50-20t46-35 40-53 25-75 6-101q-3-66-9-122t-12-85-10-52-8-29l-4-7h-81q4-34 24-65t52-47q29-15 91-37t111-43 66-37q17-18 26-47t11-49l1-21h-995z" horiz-adv-x="995.1" />
<glyph glyph-name="lock" unicode="&#xe840;" d="m179 421h285v108q0 59-42 101t-101 41-101-41-41-101v-108z m464-53v-322q0-22-16-37t-38-16h-535q-23 0-38 16t-16 37v322q0 22 16 38t38 15h17v108q0 102 74 176t176 74 177-74 73-176v-108h18q23 0 38-15t16-38z" horiz-adv-x="642.9" />
<glyph glyph-name="bell" unicode="&#xe841;" d="m509-96q0 8-9 8-33 0-57 24t-23 57q0 9-9 9t-9-9q0-41 29-70t69-28q9 0 9 9z m455 160q0-29-21-50t-50-21h-250q0-59-42-101t-101-42-101 42-42 101h-250q-29 0-50 21t-21 50q28 24 51 49t47 67 42 89 27 114 11 146q0 84 66 157t171 89q-5 10-5 21 0 23 16 38t38 16 38-16 16-38q0-11-5-21 106-16 171-89t66-157q0-78 11-146t27-114 42-89 47-67 51-49z" horiz-adv-x="1000" />
<glyph glyph-name="mobile" unicode="&#xe842;" d="m259 64q0 19-13 32t-32 13-31-13-13-32 13-31 31-13 32 13 13 31z m116 90v392q0 8-5 13t-13 5h-286q-7 0-12-5t-5-13v-392q0-8 5-13t12-5h286q7 0 13 5t5 13z m-107 473q0 9-9 9h-89q-9 0-9-9t9-9h89q9 0 9 9z m161 9v-572q0-29-22-50t-50-21h-286q-29 0-50 21t-21 50v572q0 29 21 50t50 21h286q29 0 50-21t22-50z" horiz-adv-x="428.6" />
<glyph glyph-name="home" unicode="&#xe843;" d="m786 296v-267q0-15-11-26t-25-10h-214v214h-143v-214h-214q-15 0-25 10t-11 26v267q0 1 0 2t0 2l321 264 321-264q1-1 1-4z m124 39l-34-41q-5-5-12-6h-2q-7 0-12 3l-386 322-386-322q-7-4-13-4-7 2-12 7l-35 41q-4 5-3 13t6 12l401 334q18 15 42 15t43-15l136-114v109q0 8 5 13t13 5h107q8 0 13-5t5-13v-227l122-102q5-5 6-12t-4-13z" horiz-adv-x="928.6" />
<glyph glyph-name="analysis" unicode="&#xe844;" d="m979-47l-20 0 0 606c0 12-10 20-21 20l-125 0c-12 0-22-8-22-20l0-606-82 0 0 313c0 12-10 22-21 22l-125 0c-12 0-22-10-22-22l0-313-82 0 0 397c0 12-10 22-21 22l-125 0c-12 0-22-10-22-22l0-397-82 0 0 188c0 12-10 22-21 22l-125 0c-12 0-22-10-22-22l0-188-19 0c-12 0-22-7-22-19 0-12 10-22 22-22l957 0c11 0 21 10 21 22 0 12-10 19-21 19z m-854 419c35 0 63 27 63 62 0 8-2 14-4 22l160 132c10-6 19-9 31-9 20 0 37 9 49 25l139-47c0-33 29-60 62-60 35 0 63 27 63 62 0 10-4 22-8 31l174 201c5-1 13-3 21-3 35 0 63 27 63 62 0 35-28 63-63 63-35 0-62-28-62-63 0-12 3-21 7-31l-173-203c-6 4-14 6-22 6-19 0-37-10-49-26l-138 47c0 33-30 61-63 61-35 0-62-28-62-63 0-8 2-14 3-21l-160-133c-9 6-19 10-31 10-35 0-62-30-62-63 0-35 27-62 62-62z" horiz-adv-x="1000" />
<glyph glyph-name="back-in-time" unicode="&#xe845;" d="m532 760q170 0 289-120t119-290-119-290-289-120q-138 0-252 88l70 76q82-60 182-60 126 0 216 90t90 216q0 128-90 218t-216 90q-124 0-213-86t-93-210l142 0-184-206-184 206 124 0q4 166 123 282t285 116z m-36-190l70 0 0-204 130-130-50-50-150 150 0 234z" horiz-adv-x="940" />
<glyph glyph-name="comment" unicode="&#xe846;" d="m979 788l-957 0c-12 0-22-10-22-22l0-666c0-12 10-21 22-21l269 0 0-145c0-10 6-18 14-20 2-2 6-2 8-2 5 0 11 2 15 6l160 161 491 0c11 0 21 9 21 21l0 666c0 12-10 22-21 22z m-750-209l375 0c11 0 21-8 21-20 0-12-10-21-21-21l-375 0c-12 0-20 9-20 21 0 12 8 20 20 20z m543-291l-543 0c-12 0-20 9-20 21 0 12 8 20 20 20l543 0c11 0 19-8 19-20 0-12-8-21-19-21z m0 125l-543 0c-12 0-20 9-20 21 0 12 8 20 20 20l543 0c11 0 19-8 19-20 0-12-8-21-19-21z" horiz-adv-x="1000" />
<glyph glyph-name="network" unicode="&#xe847;" d="m916 391c-27 0-55-14-68-37l-114 47c10 23 16 49 16 74 0 45-16 84-41 117l166 166c12-8 25-11 41-11 47 0 84 37 84 82 0 46-37 84-84 84-45 0-82-38-82-84 0-16 4-30 12-41l-166-166c-33 25-73 41-117 41-71 0-131-40-163-96l-234 101c0 4 0 10 0 16 0 45-37 82-82 82-47 0-84-37-84-82 0-47 37-84 84-84 25 0 47 12 63 31l236-101c-6-18-8-35-8-55 0-45 16-86 41-117l-291-291c-12 8-25 12-41 12-47 0-84-38-84-83 0-46 37-84 84-84 45 0 82 38 82 84 0 16-4 30-12 42l291 291c28-22 61-36 96-39l0-213c-35-10-62-43-62-81 0-46 37-84 84-84 46 0 84 38 84 84 0 38-28 71-63 81l0 213c53 5 100 33 129 74l121-49c0-2 0-4 0-6 0-47 37-84 82-84 47 0 84 37 84 84 0 45-37 82-84 82z" horiz-adv-x="1000" />
<glyph glyph-name="card" unicode="&#xe848;" d="m979 766l-957 0c-12 0-22-8-22-19l0-668c0-12 10-20 22-20l166 0c11 0 21 8 21 20l0 31c0 29 23 53 51 53 29 0 53-24 53-53l0-31c0-12 9-20 21-20l332 0c12 0 22 8 22 20l0 31c0 29 23 53 52 53 28 0 51-24 51-53l0-31c0-12 10-20 22-20l166 0c11 0 21 8 21 20l0 668c0 11-10 19-21 19z m-438-166l168 0 0-41-168 0z m-82-291l-334 0 0 20c0 52 25 111 94 134-20 20-31 45-31 75 0 56 46 103 103 103 59 0 106-47 106-103 0-30-12-55-32-75 67-23 94-82 94-134z m416 0l-334 0 0 41 334 0z m0 82l-334 0 0 43 334 0z m0 84l-334 0 0 41 334 0z" horiz-adv-x="1000" />
<glyph glyph-name="note" unicode="&#xe849;" d="m897 913l-125 0 0-84 19 0 0-82-82 0 0 82 20 0 0 84-125 0 0-84 21 0 0-82-84 0 0 82 22 0 0 84-125 0 0-84 21 0 0-82-84 0 0 82 22 0 0 84-125 0 0-84 19 0 0-82-82 0 0 82 20 0 0 84-125 0c-12 0-20-10-20-22l0-957c0-12 8-22 20-22l793 0c11 0 19 10 19 22l0 957c0 12-8 22-19 22z m-168-834l-457 0c-12 0-22 9-22 21 0 12 10 22 22 22l457 0c11 0 21-10 21-22 0-12-10-21-21-21z m0 125l-457 0c-12 0-22 9-22 21 0 12 10 22 22 22l457 0c11 0 21-10 21-22 0-12-10-21-21-21z m0 125l-457 0c-12 0-22 9-22 21 0 12 10 22 22 22l457 0c11 0 21-10 21-22 0-12-10-21-21-21z m0 125l-457 0c-12 0-22 9-22 21 0 12 10 22 22 22l457 0c11 0 21-10 21-22 0-12-10-21-21-21z m0 125l-457 0c-12 0-22 9-22 21 0 12 10 22 22 22l457 0c11 0 21-10 21-22 0-12-10-21-21-21z" horiz-adv-x="1000" />
<glyph glyph-name="refresh" unicode="&#xe84a;" d="m781 352q0-162-115-277-108-109-256-114l70-68q15-15 15-37t-15-37-37-15q-22 0-37 15l-193 193 193 193q15 15 37 15t37-15 15-37-15-36l-65-65q104 7 179 82 84 84 84 203 0 55-18 95t-60 83q-15 15-15 37t15 37 37 15 37-15q107-107 107-252z m-677-2q0-55 17-95t60-83q15-15 15-37t-15-37-36-15q-22 0-37 15-108 107-108 252 0 162 115 277 106 106 255 113l-69 69q-15 15-15 36t15 37 37 15 37-15l194-193-194-192q-16-17-36-17-21 0-38 17-15 15-15 36t15 36l67 68q-104-8-180-84-84-84-84-203z" horiz-adv-x="781" />
<glyph glyph-name="specials-phone" unicode="&#xe84b;" d="m971 284c-26 46-26 91 0 137 25 45 16 81-29 108-45 27-68 66-69 119 0 52-27 78-79 79-52 1-91 23-118 68-27 45-63 55-109 29-45-25-91-25-136 0-46 26-82 16-108-29-27-45-67-67-119-68-52-1-78-28-79-80-1-52-23-91-68-118-45-27-55-63-29-108 25-46 25-91 0-137-26-45-16-81 29-108 45-27 67-66 68-118 1-53 27-79 79-80 53-1 92-23 119-68 26-45 63-55 108-29 46 25 91 25 137 0 45-26 81-16 108 29 27 45 66 67 118 68 53 1 79 27 80 79 0 53 23 92 68 119 45 26 54 63 29 108z m-199-73c-59-23-91 82-262 65-25-3-42-19-34-39 6-15 26-61 33-76 6-14 28-18 33-30 6-12 1-26-15-32-16-7-59-23-72-28-12-5-30 12-37 29-8 18-30 70-41 94-8 19-33 1-56 32 0 0-21-7-26-9-33-13-77 18-91 50-13 31-5 84 27 98 377 153 255 302 331 333 45 19 135-80 190-208 55-130 64-260 20-279z m-69 254c43-100 40-181 30-185-10-4-78 49-121 150-43 100-37 191-27 195 10 5 75-60 118-160z" horiz-adv-x="1000" />
<glyph glyph-name="specials-tags" unicode="&#xe84c;" d="m968 281c-25 46-25 91 0 136 25 45 16 81-28 107-45 26-67 65-68 117-1 51-27 78-79 78-51 1-90 24-117 68-26 44-62 54-107 29-45-26-90-26-135 0-45 25-81 15-107-29-27-44-66-67-117-68-52 0-78-26-79-78-1-52-23-91-68-117-44-26-54-62-28-107 25-45 25-91 0-136-26-45-16-80 28-107 45-26 67-65 68-117 0-52 27-78 78-79 52-1 91-23 117-67 27-45 63-54 108-29 45 25 90 25 135 0 45-25 81-16 107 29 26 44 65 67 117 67 52 1 78 27 79 79 1 52 23 91 67 117 45 27 54 62 29 107z m-597-189l-144 144c-19 19-19 50 0 70l193 193c20 19 58 35 85 35l-252-252c-6-6-6-17 0-23l176-176c-19-10-42-7-58 9z m397 277c0-27-16-65-35-84l-193-193c-20-19-51-19-70 0l-144 144c-20 19-20 51 0 70l193 193c19 19 57 35 84 35h115c28 0 49-22 49-50v-115z m-66 50c0-28-22-50-49-50-28 0-50 22-50 50 0 27 22 49 50 49 27 0 49-22 49-49z" horiz-adv-x="1000" />
<glyph glyph-name="basket" unicode="&#xe84d;" d="m950 715q23 0 39-18t14-42l-53-365q-2-18-17-31t-34-12l-590 0 9-53 528 0q22 0 37-16t16-36-16-37-37-15l-572 0q-20 0-35 13t-16 30l-98 582-72 0q-22 0-37 15t-16 37 16 36 37 16l116 0q19 0 34-12t17-32l11-60 719 0z m-60-105l-200 0 0-103 185 0z m-252 0l-157 0 0-103 157 0 0 103z m0-156l-157 0 0-104 157 0 0 104z m-208 156l-182 0 18-105q3 2 8 2l156 0 0 103z m-156-156l17-104 139 0 0 104-156 0z m416-104l164 0 14 104-178 0 0-104z m-416-390q0 78 77 78 79 0 79-78 0-78-79-78-77 0-77 78z m469 0q0 78 77 78 79 0 79-78 0-78-79-78-77 0-77 78z" horiz-adv-x="1003" />
<glyph glyph-name="cancel-circled" unicode="&#xe84e;" d="m641 224q0 14-10 25l-101 101 101 101q10 11 10 25 0 15-10 26l-51 50q-10 11-25 11-15 0-25-11l-101-101-101 101q-11 11-26 11-15 0-25-11l-50-50q-11-11-11-26 0-14 11-25l101-101-101-101q-11-11-11-25 0-15 11-26l50-50q10-11 25-11 15 0 26 11l101 101 101-101q10-11 25-11 15 0 25 11l51 50q10 11 10 26z m216 126q0-117-57-215t-156-156-215-58-216 58-155 156-58 215 58 215 155 156 216 58 215-58 156-156 57-215z" horiz-adv-x="857.1" />
<glyph glyph-name="music" unicode="&#xe84f;" d="m206 714l534 116 0-704q2-42-30-81t-86-59q-64-24-110-8t-62 64q-18 48 7 97t85 73q52 20 106 10l0 376-354-82 0-490q0-42-32-81t-86-59q-64-22-109-7t-61 63q-18 48 6 97t84 73q54 20 108 10l0 592z" horiz-adv-x="740" />
<glyph glyph-name="mic" unicode="&#xe850;" d="m620 488q20 0 20-20l0-138q0-92-69-164t-201-84l0-132 130 0q20 0 20-20l0-60q0-20-20-20l-360 0q-20 0-20 20l0 60q0 20 20 20l130 0 0 132q-132 12-201 84t-69 164l0 138q0 20 20 20l30 0q20 0 20-20l0-138q0-66 59-123t191-57 191 57 59 123l0 138q0 20 20 20l30 0z m-300-238q-80 0-115 25t-35 55l0 158 300 0 0-158q0-30-35-55t-115-25z m150 520l0-212-300 0 0 212q0 30 35 55t115 25 115-25 35-55z" horiz-adv-x="640" />
<glyph glyph-name="notebook" unicode="&#xe851;" d="m897 788l-106 0 0 62c0 12-8 22-19 22l-625 0c-12 0-22-10-22-22l0-84 63 0c23 0 41-18 41-41 0-23-18-41-41-41l-63 0 0-43 63 0c23 0 41-18 41-41 0-23-18-41-41-41l-63 0 0-43 63 0c23 0 41-18 41-41 0-23-18-41-41-41l-63 0 0-43 63 0c23 0 41-18 41-41 0-23-18-41-41-41l-63 0 0-43 63 0c23 0 41-18 41-41 0-23-18-41-41-41l-63 0 0-43 63 0c23 0 41-18 41-41 0-23-18-41-41-41l-63 0 0-84c0-12 10-22 22-22l625 0c11 0 19 10 19 22l0 104 106 0c11 0 19 9 19 21l0 666c0 12-8 22-19 22z m-272-272c0-12-10-19-21-19l-250 0c-12 0-20 7-20 19l0 168c0 12 8 20 20 20l250 0c11 0 21-8 21-20z m250-394l-84 0 0 125 84 0z m0 166l-84 0 0 125 84 0z m0 166l-84 0 0 125 84 0z m0 168l-84 0 0 125 84 0z m-771 82l84 0c11 0 21 9 21 21 0 12-10 22-21 22l-84 0c-12 0-20-10-20-22 0-12 8-21 20-21z m0-125l84 0c11 0 21 9 21 21 0 12-10 22-21 22l-84 0c-12 0-20-10-20-22 0-12 8-21 20-21z m0-125l84 0c11 0 21 9 21 21 0 12-10 22-21 22l-84 0c-12 0-20-10-20-22 0-12 8-21 20-21z m0-125l84 0c11 0 21 9 21 21 0 12-10 22-21 22l-84 0c-12 0-20-10-20-22 0-12 8-21 20-21z m0-125l84 0c11 0 21 9 21 21 0 12-10 22-21 22l-84 0c-12 0-20-10-20-22 0-12 8-21 20-21z m105-104c0 12-10 22-21 22l-84 0c-12 0-20-10-20-22 0-12 8-21 20-21l84 0c11 0 21 9 21 21z" horiz-adv-x="1000" />
<glyph glyph-name="check-empty" unicode="&#xe852;" d="m625 707h-464q-37 0-63-26t-27-63v-464q0-37 27-63t63-27h464q37 0 63 27t26 63v464q0 37-26 63t-63 26z m161-89v-464q0-67-47-114t-114-47h-464q-67 0-114 47t-47 114v464q0 66 47 113t114 48h464q66 0 114-48t47-113z" horiz-adv-x="785.7" />
<glyph glyph-name="check" unicode="&#xe853;" d="m786 331v-177q0-67-47-114t-114-47h-464q-67 0-114 47t-47 114v464q0 66 47 113t114 48h464q35 0 65-14 9-4 10-13 2-10-5-16l-27-28q-6-5-13-5-2 0-5 1-13 3-25 3h-464q-37 0-63-26t-27-63v-464q0-37 27-63t63-27h464q37 0 63 27t26 63v141q0 8 5 13l36 35q6 6 13 6 3 0 7-2 11-4 11-16z m129 273l-455-454q-13-14-31-14t-32 14l-240 240q-14 13-14 31t14 32l61 62q14 13 32 13t32-13l147-147 361 361q13 13 31 13t32-13l62-61q13-14 13-32t-13-32z" horiz-adv-x="928.6" />
<glyph glyph-name="ok-squared" unicode="&#xe854;" d="m382 125l343 343q10 10 10 25t-10 25l-57 57q-11 10-25 10t-25-10l-261-261-118 118q-10 11-25 11t-25-11l-57-57q-10-11-10-25t10-25l200-200q11-11 25-11t25 11z m475 493v-536q0-66-47-113t-114-48h-535q-67 0-114 48t-47 113v536q0 66 47 113t114 48h535q67 0 114-48t47-113z" horiz-adv-x="857.1" />
<glyph glyph-name="circle-empty" unicode="&#xe855;" d="m429 654q-83 0-153-41t-110-111-41-152 41-152 110-111 153-41 152 41 110 111 41 152-41 152-110 111-152 41z m428-304q0-117-57-215t-156-156-215-58-216 58-155 156-58 215 58 215 155 156 216 58 215-58 156-156 57-215z" horiz-adv-x="857.1" />
<glyph glyph-name="circle" unicode="&#xe856;" d="m857 350q0-117-57-215t-156-156-215-58-216 58-155 156-58 215 58 215 155 156 216 58 215-58 156-156 57-215z" horiz-adv-x="857.1" />
<glyph glyph-name="dot-circled" unicode="&#xe857;" d="m571 350q0-59-41-101t-101-42-101 42-42 101 42 101 101 42 101-42 41-101z m-142 304q-83 0-153-41t-110-111-41-152 41-152 110-111 153-41 152 41 110 111 41 152-41 152-110 111-152 41z m428-304q0-117-57-215t-156-156-215-58-216 58-155 156-58 215 58 215 155 156 216 58 215-58 156-156 57-215z" horiz-adv-x="857.1" />
<glyph glyph-name="radio" unicode="&#xe858;" d="m969-56h-906c-35 0-63 28-63 62v530c0 35 28 63 63 63h662l-259 140c-5-10-16-18-28-18-19 0-34 15-34 33s15 34 34 34 33-15 33-34c0-4-1-8-3-12l372-144h129c34 0 62-27 62-62v-530c0-34-28-62-62-62z m-94 93c35 0 63 28 63 62s-28 62-63 62c-34 0-62-28-62-62 0-35 28-62 62-62z m-187 0c34 0 62 28 62 63s-28 62-62 62-63-28-63-62c0-35 28-63 63-63z m-360 468c-129 0-234-105-234-234 0-129 105-234 234-234 130 0 235 105 235 234 0 129-105 234-235 234z m610 0h-313v-94h172l31 63 31-63h79v94z m-438-281h25c-2-10-6-21-10-31h-15v31z m0 63h30c0-6 1-11 1-16s-1-10-1-15h-30v31z m0 62h15c5-10 8-20 10-31h-25v31z m-62 31v31h31v-31h-31z m-63-280h31v-15c-10-5-20-8-31-11v26z m0 62h31v-31h-31v31z m0 62h31v-31h-31v31z m0 63h31v-31h-31v31z m0 62h31v-31h-31v31z m0 62h31v-31h-31v31z m0 57c11-3 21-6 31-10v-15h-31v25z m-62-398v30h31v-30c-5-1-11-2-16-2-5 0-10 2-15 2z m0 92h31v-31h-31v31z m0 62h31v-31h-31v31z m0 63h31v-31h-31v31z m0 62h31v-31h-31v31z m0 62h31v-31h-31v31z m0 61c5 1 10 2 15 2 5 0 11-1 16-1v-30h-31v29z m-63-372h31v-25c-10 2-21 5-31 10v15z m0 62h31v-31h-31v31z m0 62h31v-31h-31v31z m0 63h31v-31h-31v31z m0 62h31v-31h-31v31z m0 62h31v-31h-31v31z m0 46c10 5 21 8 31 10v-24h-31v14z m-62-295h31v-31h-31v31z m0 62h31v-31h-31v31z m0 63h31v-31h-31v31z m0 62h31v-31h-31v31z m0 62h31v-31h-31v31z m281-93h-31v31h31v-31z m0-62h-31v31h31v-31z m0-63h-31v31h31v-31z m0-62h-31v31h31v-31z m-338 93h25v-31h-15c-4 10-7 21-10 31z m-6 47c0 5 1 10 2 16h29v-31h-29c-1 5-2 10-2 15z m16 78h15v-31h-25c3 11 6 21 10 31z m109-437c0-17-14-31-31-31h-63c-17 0-31 14-31 31s0 32 0 32h125c0 0 0-14 0-32z m656 0c0-17-14-31-31-31h-62c-18 0-32 14-32 31s0 32 0 32h125c0 0 0-14 0-32z" horiz-adv-x="1031" />
<glyph glyph-name="tags" unicode="&#xe859;" d="m969 788h-219c-52 0-124-30-160-67l-367-367c-37-37-37-96 0-133l273-273c37-37 96-37 133 0l367 367c37 36 67 108 67 160v219c0 51-43 94-94 94z m-125-313c-52 0-94 42-94 94s42 94 94 94 94-42 94-94-42-94-94-94z m-759-210l334-334c-35-19-81-13-110 17l-274 273c-36 37-36 96 0 133l367 367c37 37 109 67 161 67l-478-478c-13-13-13-32 0-45z" horiz-adv-x="1063" />
<glyph glyph-name="basket-small" unicode="&#xe85a;" d="m0 413v93h117l236 236c-2 4-3 9-3 14 0 26 21 47 47 47 25 0 46-21 46-47s-21-47-46-47c-4 0-7 2-10 2l-205-205h604l-203 206c-4-1-8-3-13-3-26 0-47 21-47 47s21 47 47 47 47-21 47-47c0-4-1-9-3-13l237-237h118v-93h-969z m777-466c-9-37-34-35-34-35l-519-1c-26 0-33 34-33 34l-138 436 862 1-138-435z m-464 372h-32v-156h32v156z m0-188h-32v-156h32v156z m62 188h-31v-156h31v156z m0-188h-31v-156h31v156z m63 188h-32v-156h32v156z m0-188h-32v-156h32v156z m62 188h-31v-156h31v156z m0-188h-31v-156h31v156z m63 188h-32v-156h32v156z m0-188h-32v-156h32v156z m62 188h-31v-156h31v156z m0-188h-31v-156h31v156z m63 188h-32v-156h32v156z m0-188h-32v-156h32v156z" horiz-adv-x="1000" />
<glyph glyph-name="baby" unicode="&#xe85b;" d="m612 137c-31-24-70-37-112-37s-81 13-112 37c-9 7-22 6-29-3s-6-22 3-30c38-29 87-46 138-46s100 17 138 46c9 8 11 21 4 30-8 9-21 10-30 3z m-216 192c0-23-19-41-42-41s-41 18-41 41c0 23 18 42 41 42s42-19 42-42z m104 521c-276 0-500-224-500-500s224-500 500-500 500 224 500 500-224 500-500 500z m332-617c-46-156-178-270-335-270-158 0-290 114-335 270-50 5-89 50-89 105 0 53 36 96 82 104v0c87 61 158 146 170 211l1-1v1c56-109 262-216 492-211 5 1 9 2 13 2 53 0 96-48 96-106 0-58-43-105-95-105z m-144 96c0-23-19-41-42-41s-42 18-42 41c0 23 19 42 42 42s42-19 42-42z" horiz-adv-x="1000" />
<glyph glyph-name="thumbs-up" unicode="&#xe85c;" d="m582 480q2-6 58-13t108-24 52-47q0-72-61-284t-107-212q-144 0-288 42t-144 88l0 342q0 14 15 34t46 45 53 41 62 43 46 31q50 34 104 100t85 104 41 26q48-76 29-137t-59-119-40-60z m-432-4q14 0 0-14-50-50-50-104l0-318q0-50 52-104 10-10-2-10-26 0-55 8t-62 45-33 99l0 242q0 62 33 100t63 47 54 9z" horiz-adv-x="800" />
<glyph glyph-name="thumbs-down" unicode="&#xe85d;" d="m218 218q-2 6-57 13t-108 24-53 47q0 72 62 285t106 213q144 0 288-43t144-89l0-342q0-10-8-24t-25-30-32-29-42-32-41-29-41-28l-33-22q-50-34-104-100t-85-104-41-26q-48 76-29 137t59 119 40 60z m432 4q-12 0 2 14 48 50 48 104l0 318q0 50-52 104-10 10 2 10 26 0 55-8t62-45 33-99l0-242q0-48-18-81t-45-48-48-21-39-6z" horiz-adv-x="800" />
<glyph glyph-name="help-circled" unicode="&#xe85e;" d="m500 82v107q0 8-5 13t-13 5h-107q-8 0-13-5t-5-13v-107q0-8 5-13t13-5h107q8 0 13 5t5 13z m143 375q0 49-31 91t-77 65-95 23q-136 0-207-119-9-14 4-24l74-55q4-4 10-4 9 0 14 7 30 38 48 51 19 14 48 14 27 0 48-15t21-33q0-21-11-34t-38-25q-35-16-65-48t-29-70v-20q0-8 5-13t13-5h107q8 0 13 5t5 13q0 10 12 27t30 28q18 10 28 16t25 19 25 27 16 34 7 45z m214-107q0-117-57-215t-156-156-215-58-216 58-155 156-58 215 58 215 155 156 216 58 215-58 156-156 57-215z" horiz-adv-x="857.1" />
<glyph glyph-name="list" unicode="&#xe85f;" d="m100 200q20 0 35-15t15-35-15-35-35-15l-50 0q-20 0-35 15t-15 35 14 35 36 15l50 0z m0 200q20 0 35-15t15-35-15-35-35-15l-50 0q-20 0-35 15t-15 35 14 35 36 15l50 0z m0 200q20 0 35-15t15-35-15-35-35-15l-50 0q-20 0-35 15t-15 35 14 35 36 15l50 0z m200-100q-20 0-35 15t-15 35 15 35 35 15l350 0q22 0 36-15t14-35-15-35-35-15l-350 0z m350-100q22 0 36-15t14-35-15-35-35-15l-350 0q-20 0-35 15t-15 35 15 35 35 15l350 0z m0-200q22 0 36-15t14-35-15-35-35-15l-350 0q-20 0-35 15t-15 35 15 35 35 15l350 0z" horiz-adv-x="700" />
<glyph glyph-name="th" unicode="&#xe860;" d="m286 154v-108q0-22-16-37t-38-16h-178q-23 0-38 16t-16 37v108q0 22 16 38t38 15h178q22 0 38-15t16-38z m0 285v-107q0-22-16-38t-38-15h-178q-23 0-38 15t-16 38v107q0 23 16 38t38 16h178q22 0 38-16t16-38z m357-285v-108q0-22-16-37t-38-16h-178q-23 0-38 16t-16 37v108q0 22 16 38t38 15h178q23 0 38-15t16-38z m-357 571v-107q0-22-16-38t-38-16h-178q-23 0-38 16t-16 38v107q0 22 16 38t38 16h178q22 0 38-16t16-38z m357-286v-107q0-22-16-38t-38-15h-178q-23 0-38 15t-16 38v107q0 23 16 38t38 16h178q23 0 38-16t16-38z m357-285v-108q0-22-16-37t-38-16h-178q-22 0-38 16t-16 37v108q0 22 16 38t38 15h178q23 0 38-15t16-38z m-357 571v-107q0-22-16-38t-38-16h-178q-23 0-38 16t-16 38v107q0 22 16 38t38 16h178q23 0 38-16t16-38z m357-286v-107q0-22-16-38t-38-15h-178q-22 0-38 15t-16 38v107q0 23 16 38t38 16h178q23 0 38-16t16-38z m0 286v-107q0-22-16-38t-38-16h-178q-22 0-38 16t-16 38v107q0 22 16 38t38 16h178q23 0 38-16t16-38z" horiz-adv-x="1000" />
<glyph glyph-name="trash" unicode="&#xe861;" d="m286 82v393q0 8-5 13t-13 5h-36q-8 0-13-5t-5-13v-393q0-8 5-13t13-5h36q8 0 13 5t5 13z m143 0v393q0 8-5 13t-13 5h-36q-8 0-13-5t-5-13v-393q0-8 5-13t13-5h36q8 0 13 5t5 13z m142 0v393q0 8-5 13t-12 5h-36q-8 0-13-5t-5-13v-393q0-8 5-13t13-5h36q7 0 12 5t5 13z m-303 554h250l-27 65q-4 5-9 6h-177q-6-1-10-6z m518-18v-36q0-8-5-13t-13-5h-54v-529q0-46-26-80t-63-34h-464q-37 0-63 33t-27 79v531h-53q-8 0-13 5t-5 13v36q0 8 5 13t13 5h172l39 93q9 21 31 35t44 15h178q22 0 44-15t30-35l39-93h173q8 0 13-5t5-13z" horiz-adv-x="785.7" />
</font>
</defs>
</svg>