{
  "name": "vc-icon",
  "css_prefix_text": "icon-",
  "css_use_suffix": false,
  "hinting": true,
  "units_per_em": 1000,
  "ascent": 850,
  "glyphs": [
    {
      "uid": "cfaa8fbbdcc7bb8d636cb974aad1f9b9",
      "css": "glass",
      "code": 59435,
      "src": "fontawesome"
    },
    {
      "uid": "9ea0a737ccc45d6c510dcbae56058849",
      "css": "music",
      "code": 59442,
      "src": "fontawesome"
    },
    {
      "uid": "9dd9e835aebe1060ba7190ad2b2ed951",
      "css": "search-alt",
      "code": 59418,
      "src": "fontawesome"
    },
    {
      "uid": "bf882b30900da12fca090d9796bc3030",
      "css": "mail-white",
      "code": 59406,
      "src": "fontawesome"
    },
    {
      "uid": "ccc2329632396dc096bb638d4b46fb98",
      "css": "mail",
      "code": 59395,
      "src": "fontawesome"
    },
    {
      "uid": "474656633f79ea2f1dad59ff63f6bf07",
      "css": "star",
      "code": 59438,
      "src": "fontawesome"
    },
    {
      "uid": "d17030afaecc1e1c22349b99f3c4992a",
      "css": "star-empty",
      "code": 59439,
      "src": "fontawesome"
    },
    {
      "uid": "84cf1fcc3fec556e7eaeb19679ca2dc9",
      "css": "star-half",
      "code": 59440,
      "src": "fontawesome"
    },
    {
      "uid": "872d9516df93eb6b776cc4d94bd97dac",
      "css": "video",
      "code": 59422,
      "src": "fontawesome"
    },
    {
      "uid": "381da2c2f7fd51f8de877c044d7f439d",
      "css": "picture",
      "code": 59421,
      "src": "fontawesome"
    },
    {
      "uid": "dc3f1d5b1d006f7f7b3b6295eccab9da",
      "css": "camera",
      "code": 59420,
      "src": "fontawesome"
    },
    {
      "uid": "9d3d9d6ce1ec63eaa26281e6162853c9",
      "css": "camera-alt",
      "code": 59419,
      "src": "fontawesome"
    },
    {
      "uid": "f805bb95d40c7ef2bc51b3d50d4f2e5c",
      "css": "th-list",
      "code": 59430,
      "src": "fontawesome"
    },
    {
      "uid": "12f4ece88e46abd864e40b35e05b11cd",
      "css": "ok",
      "code": 59396,
      "src": "fontawesome"
    },
    {
      "uid": "5211af474d3a9848f67f945e2ccaf143",
      "css": "cancel",
      "code": 59426,
      "src": "fontawesome"
    },
    {
      "uid": "44e04715aecbca7f266a17d5a7863c68",
      "css": "plus",
      "code": 59427,
      "src": "fontawesome"
    },
    {
      "uid": "0ddd3e8201ccc7d41f7b7c9d27eca6c1",
      "css": "link",
      "code": 59425,
      "src": "fontawesome"
    },
    {
      "uid": "0d6ab6194c0eddda2b8c9cedf2ab248e",
      "css": "attach",
      "code": 59431,
      "src": "fontawesome"
    },
    {
      "uid": "0d08dbb1dd648a43bdea81b7e6c9e036",
      "css": "location",
      "code": 59405,
      "src": "fontawesome"
    },
    {
      "uid": "921e3974e54ff9e8b7cd906a3dc74636",
      "css": "direction",
      "code": 59428,
      "src": "fontawesome"
    },
    {
      "uid": "9f7e588c66cfd6891f6f507cf6f6596b",
      "css": "phone",
      "code": 59397,
      "src": "fontawesome"
    },
    {
      "uid": "559647a6f430b3aeadbecd67194451dd",
      "css": "menu",
      "code": 59403,
      "src": "fontawesome"
    },
    {
      "uid": "e99461abfef3923546da8d745372c995",
      "css": "cog",
      "code": 59398,
      "src": "fontawesome"
    },
    {
      "uid": "5bb103cd29de77e0e06a52638527b575",
      "css": "wrench",
      "code": 59392,
      "src": "fontawesome"
    },
    {
      "uid": "f3f90c8c89795da30f7444634476ea4f",
      "css": "angle-left",
      "code": 59412,
      "src": "fontawesome"
    },
    {
      "uid": "7bf14281af5633a597f85b061ef1cfb9",
      "css": "angle-right",
      "code": 59416,
      "src": "fontawesome"
    },
    {
      "uid": "f9c3205df26e7778abac86183aefdc99",
      "css": "ccw",
      "code": 59423,
      "src": "fontawesome"
    },
    {
      "uid": "8b9e6a8dd8f67f7c003ed8e7e5ee0857",
      "css": "off",
      "code": 59393,
      "src": "fontawesome"
    },
    {
      "uid": "4109c474ff99cad28fd5a2c38af2ec6f",
      "css": "filter",
      "code": 59448,
      "src": "fontawesome"
    },
    {
      "uid": "b8d0c7d76e87b94882329a88e8e43d3d",
      "css": "gplus",
      "code": 59409,
      "src": "fontawesome"
    },
    {
      "uid": "627abcdb627cb1789e009c08e2678ef9",
      "css": "twitter",
      "code": 59399,
      "src": "fontawesome"
    },
    {
      "uid": "0eabe5f8d71cc838484ff39436426d2d",
      "css": "heart",
      "code": 59414,
      "src": "entypo"
    },
    {
      "uid": "d18071bbf8f0a8cec8d1f556c91c6af0",
      "css": "heart-empty",
      "code": 59413,
      "src": "entypo"
    },
    {
      "uid": "bbd66ef66bb8fa9edde54d9a90b89150",
      "css": "user",
      "code": 59394,
      "src": "entypo"
    },
    {
      "uid": "ecf8edb95c3f45eb433b4cce7ba9f740",
      "css": "users",
      "code": 59410,
      "src": "entypo"
    },
    {
      "uid": "6274e0601f2feef7eced89146e708de0",
      "css": "user-add",
      "code": 59411,
      "src": "entypo"
    },
    {
      "uid": "390d6d13398cbf8c8c3c5493f7d34088",
      "css": "share-alt",
      "code": 59437,
      "src": "entypo"
    },
    {
      "uid": "540b6a4262be769515c79700618b4aea",
      "css": "address",
      "code": 59429,
      "src": "entypo"
    },
    {
      "uid": "64f5a50cf7ac972a56a9a511acb5d28e",
      "css": "map",
      "code": 59417,
      "src": "entypo"
    },
    {
      "uid": "f8513213799b244e66b2836aeee88531",
      "css": "direction-1",
      "code": 59424,
      "src": "entypo"
    },
    {
      "uid": "91426c82d94428a33353e495418435e3",
      "css": "share",
      "code": 59441,
      "src": "entypo"
    },
    {
      "uid": "8663320a860b00f26e94d3d15c9ba99a",
      "css": "clock",
      "code": 59407,
      "src": "entypo"
    },
    {
      "uid": "9ea7cce5e08e5ac2c225fabf2e6dc353",
      "css": "briefcase",
      "code": 59444,
      "src": "entypo"
    },
    {
      "uid": "bc50457410acf467b8b5721240768742",
      "css": "facebook",
      "code": 59400,
      "src": "entypo"
    },
    {
      "uid": "b945f4ac2439565661e8e4878e35d379",
      "css": "gplus-alt",
      "code": 59402,
      "src": "entypo"
    },
    {
      "uid": "id8wp0cygl9trzbhlbd9o0fygiesi629",
      "css": "search-left",
      "code": 59401,
      "src": "modernpics"
    },
    {
      "uid": "d1a7ajpi3149rk5q4861jw9f2lzg27d1",
      "css": "user-pair",
      "code": 59436,
      "src": "modernpics"
    },
    {
      "uid": "ec21fe3492bb04d9e29103c319556ed8",
      "css": "search",
      "code": 59415,
      "src": "mfglabs"
    },
    {
      "uid": "40c6538b0fd40540bf78373f8a1fb7af",
      "css": "videocam",
      "code": 59404,
      "src": "mfglabs"
    },
    {
      "uid": "d9be617b7f2fe7843118ca2d3a1b8cca",
      "css": "down-open",
      "code": 59445,
      "src": "mfglabs"
    },
    {
      "uid": "8d2b0a28ccbfc06bb840720e554d79cc",
      "css": "bookmark",
      "code": 59434,
      "src": "elusive"
    },
    {
      "uid": "363271b58af838dd4be5013284672322",
      "css": "bookmark-empty-1",
      "code": 59433,
      "src": "elusive"
    },
    {
      "uid": "7b6c617d6d1e3f22db493839f0483bf6",
      "css": "edit",
      "code": 59443,
      "src": "elusive"
    },
    {
      "uid": "91bac16b22827347e9ee20477f0b44d2",
      "css": "mail-alt",
      "code": 59408,
      "src": "linecons"
    },
    {
      "uid": "35674c31693db324f2fd6a48f1079263",
      "css": "down-micro",
      "code": 59446,
      "src": "websymbols"
    },
    {
      "uid": "fbed8311a5af2a8e5599246d9939a475",
      "css": "up-micro",
      "code": 59432,
      "src": "websymbols"
    }
  ]
}